Linear modelling of soil temperature effects on root lesion nematode population densities in R
…
Packages

Using the tidyverse, (2017) package simplifies the libraries. It includes, readr (2017), used to import the data; tidyr (2018), used to format the data; dplyr (2017), used to subset the data; ggplot2 (2016), used for visualising the data and model fits; and broom (2017) for tidying the output of models.

library(tidyverse)

Data Wrangling

Import the data using read_csv() from readr. The data are located in the data subfolder.

nema <- read_csv("data/Degree Days Relationships.csv")

nema

## # A tibble: 24 x 9
##    Weeks  Days Temperature Degree_days Unplanted Gatcher GS50a Potam
##    <int> <int>       <dbl>       <int>     <dbl>   <dbl> <dbl> <dbl>
##  1     8    56        15.0         280      5.75    6.77  6.69  7.61
##  2     8    56        20.0         560      5.92    9.51  7.42  9.28
##  3     8    56        22.5         700      6.38    9.96  8.21  9.02
##  4     8    56        25.0         840      6.51    9.35  8.25  9.73
##  5    10    70        15.0         350      5.85    7.44  6.04  5.97
##  6    10    70        20.0         700      6.16   10.3   8.91 10.3 
##  7    10    70        22.5         875      6.19   10.4   9.18 10.7 
##  8    10    70        25.0        1050      6.36   10.6   9.04 10.5 
##  9    12    84        15.0         420      5.76    9.93  8.19  8.74
## 10    12    84        20.0         840      6.98   11.7   9.85 11.3 
## # ... with 14 more rows, and 1 more variable: Suneca <dbl>
…
Wide to Long Data

You can see that each of the varieties have their own column in the original data format (wide). Using gather() from the tidyr package to convert from to long format where the varieties are all listed in a single column, Variety. For a more in-depth look at tidyr see:

Introducing tidyr

Gather columns into key-value pairs.

nema_long <- nema %>% gather(Variety, Log_pop, Unplanted:Suneca)

nema_long

## # A tibble: 120 x 6
##    Weeks  Days Temperature Degree_days Variety   Log_pop
##    <int> <int>       <dbl>       <int> <chr>       <dbl>
##  1     8    56        15.0         280 Unplanted    5.75
##  2     8    56        20.0         560 Unplanted    5.92
##  3     8    56        22.5         700 Unplanted    6.38
##  4     8    56        25.0         840 Unplanted    6.51
##  5    10    70        15.0         350 Unplanted    5.85
##  6    10    70        20.0         700 Unplanted    6.16
##  7    10    70        22.5         875 Unplanted    6.19
##  8    10    70        25.0        1050 Unplanted    6.36
##  9    12    84        15.0         420 Unplanted    5.76
## 10    12    84        20.0         840 Unplanted    6.98
## # ... with 110 more rows
…
