…
    set.seed(52)

## Data Import and Inspection

Import the data using `read.csv` from *readr*, which is a part of the
*tidyverse*.

``` r
nema <- read_csv("data/Degree Days Relationships.csv")

nema
```

    ## # A tibble: 36 x 9
    ##    Weeks  Days Temperature Degree_days Unplanted Gatcher GS50a Potam
    ##    <int> <int>       <dbl>       <int>     <dbl>   <dbl> <dbl> <dbl>
    ##  1     8    56        15.0         280      5.75    6.77  6.69  7.61
    ##  2     8    56        20.0         560      5.92    9.51  7.42  9.28
    ##  3     8    56        22.5         700      6.38    9.96  8.21  9.02
    ##  4     8    56        25.0         840      6.51    9.35  8.25  9.73
    ##  5     8    56        27.5         980      6.06    8.20  8.00  8.82
    ##  6     8    56        30.0        1120      6.33    6.52  6.76  6.96
    ##  7    10    70        15.0         350      5.85    7.44  6.04  5.97
    ##  8    10    70        20.0         700      6.16   10.3   8.91 10.3 
    ##  9    10    70        22.5         875      6.19   10.4   9.18 10.7 
    ## 10    10    70        25.0        1050      6.36   10.6   9.04 10.5 
    ## # ... with 26 more rows, and 1 more variable: Suneca <dbl>
…
``` r
nema_long <-
  gather(data = nema,
         key = Variety,
         value = Population,
         Unplanted:Suneca)

nema_long
```

    ## # A tibble: 180 x 6
    ##    Weeks  Days Temperature Degree_days Variety   Population
    ##    <int> <int>       <dbl>       <int> <chr>          <dbl>
    ##  1     8    56        15.0         280 Unplanted       5.75
    ##  2     8    56        20.0         560 Unplanted       5.92
    ##  3     8    56        22.5         700 Unplanted       6.38
    ##  4     8    56        25.0         840 Unplanted       6.51
    ##  5     8    56        27.5         980 Unplanted       6.06
    ##  6     8    56        30.0        1120 Unplanted       6.33
    ##  7    10    70        15.0         350 Unplanted       5.85
    ##  8    10    70        20.0         700 Unplanted       6.16
    ##  9    10    70        22.5         875 Unplanted       6.19
    ## 10    10    70        25.0        1050 Unplanted       6.36
    ## # ... with 170 more rows
…
